Runtime,Spatial Kernel,Temporal Kernel,Anisotropic Kernel,Optimised Function,Probability Gain,Information Gain,Expected N_TI,Observed N_TI,AIC,AICc,BIC
555.575287103653,gs,Kagan_general,EAS,-14412.615511915279,61.12118267754591,4.1128584947617925,1413.4408275022818,1389,28839.231023830558,28839.312124482261,28875.885399229839
414.62633299827576,gs_sc_Ogata1,Kagan_general,EAS,-14132.602013901156,74.772643228492115,4.3144520858446747,1413.4408275022818,1389,28279.204027802312,28279.285128454016,28315.858403201593
776.978168964386,gs_sc_WHJK,Kagan_general,EAS,-14128.512294566381,74.993125416116214,4.3173964482167229,1413.4408275022818,1389,28271.024589132761,28271.105689784465,28307.678964532042
1776.1733560562134,gs_sc_Kagan,Kagan_general,EAS,-14129.482947753051,74.940737447845478,4.3166976338274718,1413.4408275022818,1389,28274.965895506102,28275.070243332189,28316.856610248138
664.5864410400391,pl,Kagan_general,EAS,-14135.358726291648,74.624391061341655,4.312467411697452,1413.4408275022818,1389,28286.717452583296,28286.821800409383,28328.608167325332
323.26629185676575,pl_sc_Ogata,Kagan_general,EAS,-14037.119264646433,80.093457047819427,4.3831941659416671,1413.4408275022818,1389,28090.238529292867,28090.342877118954,28132.129244034903
497.1505799293518,pl_sc_WHJK,Kagan_general,EAS,-14047.741960644969,79.483260253603717,4.3755464366410655,1413.4408275022818,1389,28109.483921289939,28109.565021941642,28146.13829668922
588.7926931381226,pl_sc_Zhuang,Kagan_general,EAS,-14042.454544884751,79.78640060567524,4.3793530714576372,1413.4408275022818,1389,28102.909089769502,28103.03961913861,28150.036143854293
