Runtime,Spatial Kernel,Temporal Kernel,Anisotropic Kernel,Optimised Function,Probability Gain,Information Gain,Expected N_TI,Observed N_TI,AIC,AICc,BIC
2854.7616760730743,gs,original,none,-13639.680169216052,106.66447722372884,4.6696881808874586,1434.001952420851,1389,27291.360338432103,27291.421119908224,27322.778374488629
2117.4041109085083,gs_sc_Ogata1,original,none,-13106.553214996078,156.57089056428455,5.0535088822697292,1434.001952420851,1389,26225.106429992156,26225.167211468277,26256.524466048682
2502.878247022629,gs_sc_WHJK,original,none,-13079.764458264,159.61988088521682,5.0727952442078701,1434.001952420851,1389,26171.528916528001,26171.589698004122,26202.946952584527
3476.746598005295,gs_sc_Kagan,original,none,-13639.680018557307,106.66448879315799,4.6696882893530773,1434.001952420851,1389,27293.360037114613,27293.441137766316,27330.014412513894
2490.1421270370483,pl,original,none,-13091.786617522588,158.24429059149449,5.0641399819626667,1434.001952420851,1389,26197.573235045176,26197.65433569688,26234.227610444457
4020.4312908649445,pl_sc_Ogata,original,none,-12937.459408848419,176.84023249415691,5.1752466836719311,1434.001952420851,1389,25888.918817696838,25888.999918348542,25925.573193096119
2058.3708930015564,pl_sc_WHJK,original,none,-12945.77581576696,175.7845943411821,5.1692593496773016,1434.001952420851,1389,25903.551631533919,25903.61241301004,25934.969667590445
3838.6270060539246,pl_sc_Zhuang,original,none,-12924.363555632919,178.51541280280728,5.1846749437262867,1434.001952420851,1389,25864.727111265838,25864.831459091925,25906.617826007874
