Runtime,Spatial Kernel,Temporal Kernel,Anisotropic Kernel,Optimised Function,Probability Gain,Information Gain,Expected N_TI,Observed N_TI,AIC,AICc,BIC
1037.3396639823914,gs,Kagan_general,none,-13782.633032653395,96.211453231893628,4.5665484070495932,1422.8276081017445,1389,27579.266065306791,27579.347165958494,27615.920440706072
1118.8934252262115,gs_sc_Ogata1,Kagan_general,none,-13340.980778701225,132.22600171504092,4.8845125927602986,1422.8276081017445,1389,26695.96155740245,26696.042658054153,26732.615932801731
990.6534547805786,gs_sc_WHJK,Kagan_general,none,-13322.430148036679,134.00377596643932,4.8978679784079198,1422.8276081017445,1389,26658.860296073359,26658.941396725062,26695.51467147264
1024.8433051109314,gs_sc_Kagan,Kagan_general,none,-13326.842792123049,133.57874161770289,4.8946911288137018,1422.8276081017445,1389,26669.685584246097,26669.789932072184,26711.576298988133
981.5217490196228,pl,Kagan_general,none,-13310.890563174733,135.12169473729176,4.9061758148816033,1422.8276081017445,1389,26637.781126349466,26637.885474175553,26679.671841091502
1853.8473300933838,pl_sc_Ogata,Kagan_general,none,-13172.226179449121,149.3072382677191,5.0060061847344564,1422.8276081017445,1389,26360.452358898241,26360.556706724328,26402.343073640277
1271.3147478103638,pl_sc_WHJK,Kagan_general,none,-13176.607182034058,148.83705474161147,5.0028521151988636,1422.8276081017445,1389,26367.214364068117,26367.29546471982,26403.868739467398
2036.9123799800873,pl_sc_Zhuang,Kagan_general,none,-13169.291726579957,149.62300370327358,5.0081188217892896,1422.8276081017445,1389,26356.583453159914,26356.713982529021,26403.710507244705
